%!PS-Adobe-2.0 EPSF-2.0
%%Title: 1f.eps
%%Creator: fig2dev Version 3.2 Patchlevel 3d
%%CreationDate: Thu Jan 12 13:13:50 2006
%%For: titan@dasdevpc.triumf.ca (Titan Expt)
%%BoundingBox: 0 0 729 842
%%Magnification: 1.0000
%%EndComments
/$F2psDict 200 dict def
$F2psDict begin
$F2psDict /mtrx matrix put
/col-1 {0 setgray} bind def
/col0 {0.000 0.000 0.000 srgb} bind def
/col1 {0.000 0.000 1.000 srgb} bind def
/col2 {0.000 1.000 0.000 srgb} bind def
/col3 {0.000 1.000 1.000 srgb} bind def
/col4 {1.000 0.000 0.000 srgb} bind def
/col5 {1.000 0.000 1.000 srgb} bind def
/col6 {1.000 1.000 0.000 srgb} bind def
/col7 {1.000 1.000 1.000 srgb} bind def
/col8 {0.000 0.000 0.560 srgb} bind def
/col9 {0.000 0.000 0.690 srgb} bind def
/col10 {0.000 0.000 0.820 srgb} bind def
/col11 {0.530 0.810 1.000 srgb} bind def
/col12 {0.000 0.560 0.000 srgb} bind def
/col13 {0.000 0.690 0.000 srgb} bind def
/col14 {0.000 0.820 0.000 srgb} bind def
/col15 {0.000 0.560 0.560 srgb} bind def
/col16 {0.000 0.690 0.690 srgb} bind def
/col17 {0.000 0.820 0.820 srgb} bind def
/col18 {0.560 0.000 0.000 srgb} bind def
/col19 {0.690 0.000 0.000 srgb} bind def
/col20 {0.820 0.000 0.000 srgb} bind def
/col21 {0.560 0.000 0.560 srgb} bind def
/col22 {0.690 0.000 0.690 srgb} bind def
/col23 {0.820 0.000 0.820 srgb} bind def
/col24 {0.500 0.190 0.000 srgb} bind def
/col25 {0.630 0.250 0.000 srgb} bind def
/col26 {0.750 0.380 0.000 srgb} bind def
/col27 {1.000 0.500 0.500 srgb} bind def
/col28 {1.000 0.630 0.630 srgb} bind def
/col29 {1.000 0.750 0.750 srgb} bind def
/col30 {1.000 0.880 0.880 srgb} bind def
/col31 {1.000 0.840 0.000 srgb} bind def

end
save
newpath 0 842 moveto 0 0 lineto 729 0 lineto 729 842 lineto closepath clip newpath
-4.5 846.5 translate
1 -1 scale

/cp {closepath} bind def
/ef {eofill} bind def
/gr {grestore} bind def
/gs {gsave} bind def
/sa {save} bind def
/rs {restore} bind def
/l {lineto} bind def
/m {moveto} bind def
/rm {rmoveto} bind def
/n {newpath} bind def
/s {stroke} bind def
/sh {show} bind def
/slc {setlinecap} bind def
/slj {setlinejoin} bind def
/slw {setlinewidth} bind def
/srgb {setrgbcolor} bind def
/rot {rotate} bind def
/sc {scale} bind def
/sd {setdash} bind def
/ff {findfont} bind def
/sf {setfont} bind def
/scf {scalefont} bind def
/sw {stringwidth} bind def
/tr {translate} bind def
/tnt {dup dup currentrgbcolor
  4 -2 roll dup 1 exch sub 3 -1 roll mul add
  4 -2 roll dup 1 exch sub 3 -1 roll mul add
  4 -2 roll dup 1 exch sub 3 -1 roll mul add srgb}
  bind def
/shd {dup dup currentrgbcolor 4 -2 roll mul 4 -2 roll mul
  4 -2 roll mul srgb} bind def
/reencdict 12 dict def /ReEncode { reencdict begin
/newcodesandnames exch def /newfontname exch def /basefontname exch def
/basefontdict basefontname findfont def /newfont basefontdict maxlength dict def
basefontdict { exch dup /FID ne { dup /Encoding eq
{ exch dup length array copy newfont 3 1 roll put }
{ exch newfont 3 1 roll put } ifelse } { pop pop } ifelse } forall
newfont /FontName newfontname put newcodesandnames aload pop
128 1 255 { newfont /Encoding get exch /.notdef put } for
newcodesandnames length 2 idiv { newfont /Encoding get 3 1 roll put } repeat
newfontname newfont definefont pop end } def
/isovec [
8#055 /minus 8#200 /grave 8#201 /acute 8#202 /circumflex 8#203 /tilde
8#204 /macron 8#205 /breve 8#206 /dotaccent 8#207 /dieresis
8#210 /ring 8#211 /cedilla 8#212 /hungarumlaut 8#213 /ogonek 8#214 /caron
8#220 /dotlessi 8#230 /oe 8#231 /OE
8#240 /space 8#241 /exclamdown 8#242 /cent 8#243 /sterling
8#244 /currency 8#245 /yen 8#246 /brokenbar 8#247 /section 8#250 /dieresis
8#251 /copyright 8#252 /ordfeminine 8#253 /guillemotleft 8#254 /logicalnot
8#255 /hyphen 8#256 /registered 8#257 /macron 8#260 /degree 8#261 /plusminus
8#262 /twosuperior 8#263 /threesuperior 8#264 /acute 8#265 /mu 8#266 /paragraph
8#267 /periodcentered 8#270 /cedilla 8#271 /onesuperior 8#272 /ordmasculine
8#273 /guillemotright 8#274 /onequarter 8#275 /onehalf
8#276 /threequarters 8#277 /questiondown 8#300 /Agrave 8#301 /Aacute
8#302 /Acircumflex 8#303 /Atilde 8#304 /Adieresis 8#305 /Aring
8#306 /AE 8#307 /Ccedilla 8#310 /Egrave 8#311 /Eacute
8#312 /Ecircumflex 8#313 /Edieresis 8#314 /Igrave 8#315 /Iacute
8#316 /Icircumflex 8#317 /Idieresis 8#320 /Eth 8#321 /Ntilde 8#322 /Ograve
8#323 /Oacute 8#324 /Ocircumflex 8#325 /Otilde 8#326 /Odieresis 8#327 /multiply
8#330 /Oslash 8#331 /Ugrave 8#332 /Uacute 8#333 /Ucircumflex
8#334 /Udieresis 8#335 /Yacute 8#336 /Thorn 8#337 /germandbls 8#340 /agrave
8#341 /aacute 8#342 /acircumflex 8#343 /atilde 8#344 /adieresis 8#345 /aring
8#346 /ae 8#347 /ccedilla 8#350 /egrave 8#351 /eacute
8#352 /ecircumflex 8#353 /edieresis 8#354 /igrave 8#355 /iacute
8#356 /icircumflex 8#357 /idieresis 8#360 /eth 8#361 /ntilde 8#362 /ograve
8#363 /oacute 8#364 /ocircumflex 8#365 /otilde 8#366 /odieresis 8#367 /divide
8#370 /oslash 8#371 /ugrave 8#372 /uacute 8#373 /ucircumflex
8#374 /udieresis 8#375 /yacute 8#376 /thorn 8#377 /ydieresis] def
/Times-Roman /Times-Roman-iso isovec ReEncode
/$F2psBegin {$F2psDict begin /$F2psEnteredState save def} def
/$F2psEnd {$F2psEnteredState restore end} def

$F2psBegin
10 setmiterlimit
 0.06000 0.06000 sc
%
% Fig objects follow
%
% Polyline
7.500 slw
 [60] 0 sd
n 2550 3825 m
 2550 1350 l gs col4 s gr  [] 0 sd
% Polyline
n 3000 3450 m
 3150 3225 l gs col4 s gr 
% Polyline
n 2925 3450 m
 3075 3225 l gs col4 s gr 
% Polyline
n 3000 3375 m
 2025 3375 l gs col4 s gr 
% Polyline
n 3000 2625 m 3450 2625 l 3450 2400 l 3525 2400 l 3525 2625 l
 10800 2625 l gs col4 s gr 
% Polyline
n 4121 2550 m 4129 2550 l gs col4 s gr
% Polyline
n 3075 3375 m 3450 3375 l 3450 3075 l
 3675 3075 l gs col4 s gr 
% Polyline
n 3075 3375 m 3450 3375 l 3450 3075 l
 3675 3075 l gs col4 s gr 
% Polyline
n 3600 3150 m
 3750 2925 l gs col4 s gr 
% Polyline
n 3675 3150 m
 3825 2925 l gs col4 s gr 
% Polyline
n 3750 3075 m 4125 3075 l 4125 3375 l
 10800 3375 l gs col4 s gr 
% Polyline
n 6225 4800 m
 6150 5025 l gs col4 s gr 
% Polyline
 [60] 0 sd
n 2025 1200 m
 2025 9225 l gs col4 s gr  [] 0 sd
% Polyline
n 2025 5400 m 4875 5400 l 4875 4950 l
 6150 4950 l gs col4 s gr 
% Polyline
n 2025 6300 m 4875 6300 l 4875 6075 l 4950 6075 l 4950 6300 l 6675 6300 l
 6675 6075 l 6750 6075 l 6750 6300 l
 7275 6300 l gs col4 s gr 
% Polyline
gs  clippath
6690 5880 m 6690 5820 l 6538 5820 l 6658 5850 l 6538 5880 l cp
4860 5820 m 4860 5880 l 5012 5880 l 4892 5850 l 5012 5820 l cp
eoclip
n 4875 5850 m
 6675 5850 l gs col4 s gr gr

% arrowhead
n 5012 5820 m 4892 5850 l 5012 5880 l  col4 s
% arrowhead
n 6538 5880 m 6658 5850 l 6538 5820 l  col4 s
% Polyline
 [60] 0 sd
n 6675 7725 m
 6675 5775 l gs col4 s gr  [] 0 sd
% Polyline
 [60] 0 sd
n 4950 6225 m
 4950 5700 l gs col4 s gr  [] 0 sd
% Polyline
gs  clippath
4935 5670 m 4935 5730 l 5087 5730 l 4967 5700 l 5087 5670 l cp
eoclip
n 5175 5700 m
 4950 5700 l gs col4 s gr gr

% arrowhead
n 5087 5670 m 4967 5700 l 5087 5730 l  col4 s
% Polyline
gs  clippath
4890 5730 m 4890 5670 l 4738 5670 l 4858 5700 l 4738 5730 l cp
eoclip
n 4575 5700 m
 4875 5700 l gs col4 s gr gr

% arrowhead
n 4738 5730 m 4858 5700 l 4738 5670 l  col4 s
% Polyline
n 6300 4800 m
 6225 5025 l gs col4 s gr 
% Polyline
gs  clippath
9615 4680 m 9615 4620 l 9463 4620 l 9583 4650 l 9463 4680 l cp
4860 4620 m 4860 4680 l 5012 4680 l 4892 4650 l 5012 4620 l cp
eoclip
n 4875 4650 m
 9600 4650 l gs col4 s gr gr

% arrowhead
n 5012 4620 m 4892 4650 l 5012 4680 l  col4 s
% arrowhead
n 9463 4680 m 9583 4650 l 9463 4620 l  col4 s
% Polyline
gs  clippath
4890 4155 m 4890 4095 l 4738 4095 l 4858 4125 l 4738 4155 l cp
4110 4095 m 4110 4155 l 4262 4155 l 4142 4125 l 4262 4095 l cp
eoclip
n 4125 4125 m
 4875 4125 l gs col4 s gr gr

% arrowhead
n 4262 4095 m 4142 4125 l 4262 4155 l  col4 s
% arrowhead
n 4738 4155 m 4858 4125 l 4738 4095 l  col4 s
% Polyline
gs  clippath
4398 4029 m 4425 4083 l 4560 4016 l 4440 4043 l 4533 3962 l cp
eoclip
n 5025 3900 m 4725 3900 l
 4425 4050 l gs col4 s gr gr

% arrowhead
n 4533 3962 m 4440 4043 l 4560 4016 l  col4 s
% Polyline
n 2025 7875 m 4875 7875 l 4875 7650 l 4950 7650 l 4950 7875 l 5475 7875 l
 5475 7650 l 5550 7650 l 5550 7875 l 6075 7875 l 6075 7650 l
 6150 7650 l 6150 7875 l 6675 7875 l 6675 7650 l 6750 7650 l
 6750 7875 l
 7275 7875 l gs col4 s gr 
% Polyline
n 7350 7725 m
 7275 8025 l gs col4 s gr 
% Polyline
n 7425 7725 m
 7350 8025 l gs col4 s gr 
% Polyline
n 7425 7875 m 7800 7875 l 7800 7650 l 7875 7650 l 7875 7875 l
 8400 7875 l gs col4 s gr 
% Polyline
 [60] 0 sd
n 5475 7650 m
 5475 7275 l gs col4 s gr  [] 0 sd
% Polyline
 [60] 0 sd
n 5550 7650 m
 5550 7275 l gs col4 s gr  [] 0 sd
% Polyline
 [60] 0 sd
n 6075 7650 m
 6075 7275 l gs col4 s gr  [] 0 sd
% Polyline
gs  clippath
6090 7530 m 6090 7470 l 5938 7470 l 6058 7500 l 5938 7530 l cp
5460 7470 m 5460 7530 l 5612 7530 l 5492 7500 l 5612 7470 l cp
eoclip
n 5475 7500 m
 6075 7500 l gs col4 s gr gr

% arrowhead
n 5612 7470 m 5492 7500 l 5612 7530 l  col4 s
% arrowhead
n 5938 7530 m 6058 7500 l 5938 7470 l  col4 s
% Polyline
gs  clippath
6090 7755 m 6090 7695 l 5938 7695 l 6058 7725 l 5938 7755 l cp
5535 7695 m 5535 7755 l 5687 7755 l 5567 7725 l 5687 7695 l cp
eoclip
n 5550 7725 m
 6075 7725 l gs col4 s gr gr

% arrowhead
n 5687 7695 m 5567 7725 l 5687 7755 l  col4 s
% arrowhead
n 5938 7755 m 6058 7725 l 5938 7695 l  col4 s
% Polyline
gs  clippath
5870 7773 m 5816 7800 l 5883 7935 l 5857 7815 l 5937 7908 l cp
eoclip
n 6075 8250 m
 5850 7800 l gs col4 s gr gr

% arrowhead
n 5937 7908 m 5857 7815 l 5883 7935 l  col4 s
% Polyline
gs  clippath
5490 7380 m 5490 7320 l 5338 7320 l 5458 7350 l 5338 7380 l cp
eoclip
n 5175 7350 m
 5475 7350 l gs col4 s gr gr

% arrowhead
n 5338 7380 m 5458 7350 l 5338 7320 l  col4 s
% Polyline
gs  clippath
5535 7320 m 5535 7380 l 5687 7380 l 5567 7350 l 5687 7320 l cp
eoclip
n 5775 7350 m
 5550 7350 l gs col4 s gr gr

% arrowhead
n 5687 7320 m 5567 7350 l 5687 7380 l  col4 s
% Polyline
gs  clippath
5891 7425 m 5945 7451 l 6012 7316 l 5932 7410 l 5958 7289 l cp
eoclip
n 6150 6975 m
 5925 7425 l gs col4 s gr gr

% arrowhead
n 5958 7289 m 5932 7410 l 6012 7316 l  col4 s
% Polyline
n 7425 6150 m
 7275 6450 l gs col4 s gr 
% Polyline
n 7350 6150 m
 7200 6450 l gs col4 s gr 
% Polyline
n 7350 6300 m 7800 6300 l 7800 6075 l 7875 6075 l 7875 6300 l
 10800 6300 l gs col4 s gr 
% Polyline
n 2025 8775 m 9675 8775 l 9675 8475 l
 10725 8475 l gs col4 s gr 
% Polyline
 [60] 0 sd
n 7800 7650 m
 7800 6225 l gs col4 s gr  [] 0 sd
% Polyline
n 2925 2700 m
 3075 2475 l gs col4 s gr 
% Polyline
n 2850 2700 m
 3000 2475 l gs col4 s gr 
% Polyline
n 2850 2625 m
 2025 2625 l gs col4 s gr 
% Polyline
gs  clippath
2535 3795 m 2535 3855 l 2687 3855 l 2567 3825 l 2687 3795 l cp
3465 3855 m 3465 3795 l 3313 3795 l 3433 3825 l 3313 3855 l cp
eoclip
n 3450 3825 m
 2550 3825 l gs col4 s gr gr

% arrowhead
n 3313 3855 m 3433 3825 l 3313 3795 l  col4 s
% arrowhead
n 2687 3795 m 2567 3825 l 2687 3855 l  col4 s
% Polyline
gs  clippath
3465 2955 m 3465 2895 l 3313 2895 l 3433 2925 l 3313 2955 l cp
eoclip
n 3150 2925 m
 3450 2925 l gs col4 s gr gr

% arrowhead
n 3313 2955 m 3433 2925 l 3313 2895 l  col4 s
% Polyline
 [60] 0 sd
n 4875 8025 m
 4875 3675 l gs col4 s gr  [] 0 sd
% Polyline
gs  clippath
4110 2895 m 4110 2955 l 4262 2955 l 4142 2925 l 4262 2895 l cp
eoclip
n 4125 2925 m
 4350 2925 l gs col4 s gr gr

% arrowhead
n 4262 2895 m 4142 2925 l 4262 2955 l  col4 s
% Polyline
 [60] 0 sd
n 3450 3900 m
 3450 1800 l gs col4 s gr  [] 0 sd
% Polyline
n 2025 1650 m 2100 1650 l 2550 1650 l 2550 1425 l 2625 1425 l 2625 1650 l

 2925 1650 l gs col4 s gr 
% Polyline
gs  clippath
2565 1230 m 2565 1170 l 2413 1170 l 2533 1200 l 2413 1230 l cp
eoclip
n 2325 1200 m
 2550 1200 l gs col4 s gr gr

% arrowhead
n 2413 1230 m 2533 1200 l 2413 1170 l  col4 s
% Polyline
gs  clippath
2610 1170 m 2610 1230 l 2762 1230 l 2642 1200 l 2762 1170 l cp
eoclip
n 2850 1200 m
 2625 1200 l gs col4 s gr gr

% arrowhead
n 2762 1170 m 2642 1200 l 2762 1230 l  col4 s
% Polyline
 [60] 0 sd
gs  clippath
2565 1530 m 2565 1470 l 2413 1470 l 2533 1500 l 2413 1530 l cp
2010 1470 m 2010 1530 l 2162 1530 l 2042 1500 l 2162 1470 l cp
eoclip
n 2025 1500 m
 2550 1500 l gs col4 s gr gr
 [] 0 sd
% arrowhead
n 2162 1470 m 2042 1500 l 2162 1530 l  col4 s
% arrowhead
n 2413 1530 m 2533 1500 l 2413 1470 l  col4 s
% Polyline
gs  clippath
2166 1438 m 2226 1448 l 2251 1299 l 2202 1413 l 2192 1289 l cp
eoclip
n 2274 979 m
 2199 1429 l gs col4 s gr gr

% arrowhead
n 2192 1289 m 2202 1413 l 2251 1299 l  col4 s
% Polyline
 [60] 0 sd
n 2625 1500 m
 2625 1050 l gs col4 s gr  [] 0 sd
% Polyline
n 3000 1650 m
 10800 1650 l gs col4 s gr 
% Polyline
n 2850 1725 m
 3000 1500 l gs col4 s gr 
% Polyline
n 2925 1725 m
 3075 1500 l gs col4 s gr 
% Polyline
gs  clippath
3465 2280 m 3465 2220 l 3313 2220 l 3433 2250 l 3313 2280 l cp
2535 2220 m 2535 2280 l 2687 2280 l 2567 2250 l 2687 2220 l cp
eoclip
n 2550 2250 m
 3450 2250 l gs col4 s gr gr

% arrowhead
n 2687 2220 m 2567 2250 l 2687 2280 l  col4 s
% arrowhead
n 3313 2280 m 3433 2250 l 3313 2220 l  col4 s
% Polyline
 [60] 0 sd
n 9675 7725 m
 9675 5025 l gs col4 s gr  [] 0 sd
% Polyline
n 6375 4950 m 9675 4950 l 9675 5400 l
 10875 5400 l gs col4 s gr 
% Polyline
n 8400 7875 m 8400 7650 l 8475 7650 l 8475 7875 l 9000 7875 l 9000 7650 l
 9075 7650 l 9075 7875 l 9600 7875 l 9600 7650 l 9675 7650 l
 9675 7875 l
 10725 7875 l gs col4 s gr 
% Polyline
gs  clippath
2055 9285 m 1995 9285 l 1995 9437 l 2025 9317 l 2055 9437 l cp
eoclip
n 2025 9600 m
 2025 9300 l gs col4 s gr gr

% arrowhead
n 2055 9437 m 2025 9317 l 1995 9437 l  col4 s
% Polyline
 [60] 0 sd
n 4125 2850 m
 4125 4500 l gs col4 s gr  [] 0 sd
% Polyline
2 slj
 [60] 0 sd
n 9675 7575 m
 9675 8475 l gs col4 s gr  [] 0 sd
% Polyline
n 3450 3375 m 3450 3374 l 3451 3371 l 3452 3363 l 3453 3348 l 3456 3328 l
 3460 3303 l 3464 3274 l 3469 3244 l 3474 3213 l 3480 3183 l
 3486 3156 l 3492 3130 l 3499 3109 l 3507 3091 l 3516 3079 l
 3525 3075 l 3534 3079 l 3542 3091 l 3549 3108 l 3554 3129 l
 3558 3151 l 3560 3175 l 3561 3200 l 3563 3225 l 3564 3250 l
 3565 3275 l 3567 3299 l 3571 3321 l 3576 3342 l 3583 3359 l
 3591 3371 l 3600 3375 l 3609 3371 l 3617 3359 l 3624 3342 l
 3629 3321 l 3633 3299 l 3635 3275 l 3636 3250 l 3638 3225 l
 3639 3200 l 3640 3175 l 3642 3151 l 3646 3129 l 3651 3108 l
 3658 3091 l 3666 3079 l 3675 3075 l 3684 3079 l 3692 3091 l
 3699 3108 l 3704 3129 l 3708 3151 l 3710 3175 l 3711 3200 l
 3713 3225 l 3714 3250 l 3715 3275 l 3717 3299 l 3721 3321 l
 3726 3342 l 3733 3359 l 3741 3371 l 3750 3375 l 3759 3371 l
 3767 3359 l 3774 3342 l 3779 3321 l 3783 3299 l 3785 3275 l
 3786 3250 l 3788 3225 l 3789 3200 l 3790 3175 l 3792 3151 l
 3796 3129 l 3801 3108 l 3808 3091 l 3816 3079 l 3825 3075 l
 3834 3079 l 3842 3091 l 3849 3108 l 3854 3129 l 3858 3151 l
 3860 3175 l 3861 3200 l 3863 3225 l 3864 3250 l 3865 3275 l
 3867 3299 l 3871 3321 l 3876 3342 l 3883 3359 l 3891 3371 l
 3900 3375 l 3909 3371 l 3917 3359 l 3924 3342 l 3929 3321 l
 3933 3299 l 3935 3275 l 3936 3250 l 3938 3225 l 3939 3200 l
 3940 3175 l 3942 3151 l 3946 3129 l 3951 3108 l 3958 3091 l
 3966 3079 l 3975 3075 l 3984 3079 l 3992 3091 l 3999 3108 l
 4004 3129 l 4008 3151 l 4010 3175 l 4011 3200 l 4013 3225 l
 4014 3250 l 4015 3275 l 4017 3299 l 4021 3321 l 4026 3342 l
 4033 3359 l 4041 3371 l 4050 3375 l 4059 3371 l 4068 3359 l
 4076 3341 l 4083 3320 l 4089 3294 l 4095 3267 l 4101 3237 l
 4106 3206 l 4111 3176 l 4115 3147 l 4119 3122 l 4122 3102 l
 4123 3087 l 4124 3079 l 4125 3076 l
 4125 3075 l gs col4 s gr 
/Times-Roman-iso ff 180.00 scf sf
2100 3600 m
gs 1 -1 sc (RF gate) col4 sh gr
/Times-Roman-iso ff 180.00 scf sf
5100 6075 m
gs 1 -1 sc (trap trigger delay) col4 sh gr
/Times-Roman-iso ff 180.00 scf sf
2100 6225 m
gs 1 -1 sc (Trap trigger) col4 sh gr
/Times-Roman-iso ff 180.00 scf sf
3825 5775 m
gs 1 -1 sc (d_pulsew) col4 sh gr
/Times-Roman-iso ff 180.00 scf sf
5100 3975 m
gs 1 -1 sc (TOF delay) col4 sh gr
/Times-Roman-iso ff 180.00 scf sf
6000 8400 m
gs 1 -1 sc (= mcs_enable_gate - dmsnp) col4 sh gr
/Times-Roman-iso ff 180.00 scf sf
5325 8400 m
gs 1 -1 sc (d_count) col4 sh gr
/Times-Roman-iso ff 180.00 scf sf
5250 6975 m
gs 1 -1 sc (total dwell time = bin width) col4 sh gr
/Times-Roman-iso ff 180.00 scf sf
4500 7425 m
gs 1 -1 sc (d_msnp) col4 sh gr
/Times-Roman-iso ff 180.00 scf sf
2100 8025 m
gs 1 -1 sc (next pulse) col4 sh gr
/Times-Roman-iso ff 180.00 scf sf
2100 8700 m
gs 1 -1 sc (DAQ service time) col4 sh gr
/Times-Roman-iso ff 180.00 scf sf
2400 4050 m
gs 1 -1 sc (Injection phase) col4 sh gr
/Times-Roman-iso ff 180.00 scf sf
4425 3000 m
gs 1 -1 sc (RF on duration) col4 sh gr
/Times-Roman-iso ff 180.00 scf sf
2175 900 m
gs 1 -1 sc (Injection delay) col4 sh gr
/Times-Roman-iso ff 180.00 scf sf
3300 900 m
gs 1 -1 sc (= d_inj) col4 sh gr
/Times-Roman-iso ff 180.00 scf sf
2925 1200 m
gs 1 -1 sc (d_pulsew) col4 sh gr
/Times-Roman-iso ff 180.00 scf sf
3450 2250 m
gs 1 -1 sc (RF On) col4 sh gr
/Times-Roman-iso ff 180.00 scf sf
3975 2250 m
gs 1 -1 sc (delay) col4 sh gr
/Times-Roman-iso ff 180.00 scf sf
2025 1875 m
gs 1 -1 sc (Trigger to start Injection) col4 sh gr
/Times-Roman-iso ff 180.00 scf sf
4425 2250 m
gs 1 -1 sc (= d_rfon) col4 sh gr
/Times-Roman-iso ff 180.00 scf sf
5625 3000 m
gs 1 -1 sc (= d_rfgate) col4 sh gr
/Times-Roman-iso ff 180.00 scf sf
5925 3975 m
gs 1 -1 sc (=d_tof) col4 sh gr
/Times-Roman-iso ff 180.00 scf sf
5175 750 m
gs 1 -1 sc (Titan Experiment timing diagram \(ppg1f\)....not to scale ) col4 sh gr
/Times-Roman-iso ff 180.00 scf sf
2100 5325 m
gs 1 -1 sc (TOF duration) col4 sh gr
/Times-Roman-iso ff 180.00 scf sf
2100 7800 m
gs 1 -1 sc (MCS) col4 sh gr
/Times-Roman-iso ff 180.00 scf sf
1200 1125 m
gs 1 -1 sc (PPG) col4 sh gr
/Times-Roman-iso ff 180.00 scf sf
1200 1275 m
gs 1 -1 sc (output) col4 sh gr
/Times-Roman-iso ff 180.00 scf sf
1425 1650 m
gs 1 -1 sc (4) col4 sh gr
/Times-Roman-iso ff 180.00 scf sf
1425 2625 m
gs 1 -1 sc (6) col4 sh gr
/Times-Roman-iso ff 180.00 scf sf
1425 3450 m
gs 1 -1 sc (5) col4 sh gr
/Times-Roman-iso ff 180.00 scf sf
1425 5400 m
gs 1 -1 sc (8) col4 sh gr
/Times-Roman-iso ff 180.00 scf sf
1425 6300 m
gs 1 -1 sc (3) col4 sh gr
/Times-Roman-iso ff 180.00 scf sf
1425 7950 m
gs 1 -1 sc (7) col4 sh gr
/Times-Roman-iso ff 180.00 scf sf
1350 8850 m
gs 1 -1 sc (13) col4 sh gr
/Times-Roman-iso ff 180.00 scf sf
10350 9000 m
gs 1 -1 sc (Read out data, retrigger) col4 sh gr
/Times-Roman-iso ff 180.00 scf sf
9975 9225 m
gs 1 -1 sc (sequence with next RF value) col4 sh gr
/Times-Roman-iso ff 180.00 scf sf
2250 9600 m
gs 1 -1 sc (Master trigger starts PPG) col4 sh gr
/Times-Roman-iso ff 180.00 scf sf
5250 6225 m
gs 1 -1 sc (\(dwelltimes\)) col4 sh gr
/Times-Roman-iso ff 180.00 scf sf
2100 3000 m
gs 1 -1 sc (Generator) col4 sh gr
/Times-Roman-iso ff 180.00 scf sf
2100 2850 m
gs 1 -1 sc (Function) col4 sh gr
/Times-Roman-iso ff 180.00 scf sf
2100 2550 m
gs 1 -1 sc (Trigger) col4 sh gr
/Times-Roman-iso ff 180.00 scf sf
4875 4575 m
gs 1 -1 sc (TOF duration = # trap triggers *  trap trigger delay * dwell time) col4 sh gr
$F2psEnd
rs
